﻿{
  "version": "1.0.0-*",

  "dependencies": {
    "NETStandard.Library": "1.6.0"
  },

  "frameworks": {
     "netcoreapp1.0": {
      "dependencies": {
        "Microsoft.NETCore.App": {
          "type": "platform",
          "version": "1.0.0"
        }
      }
        }

  }
}
